{
  "name": "grid-labeler",
  "title": "Grid Labeler",
  "description": "Draw coordinates on map grids",
  "Author": "JasonMMakay",
  "version": "0.0.0",
  "minimumCoreVersion": "0.7.9",
  "scripts": []
}
